<svg width="18" height="19" viewBox="0 0 18 19" fill="none" xmlns="http://www.w3.org/2000/svg">
<path d="M16.8341 1.19279C15.2846 -0.360487 12.7649 -0.360487 11.2154 1.19279L0.913966 11.4904C0.833426 11.571 0.783568 11.6745 0.768227 11.7857L0.00501224 17.4389C-0.0179993 17.6 0.0395295 17.7611 0.150752 17.8723C0.246633 17.9682 0.380867 18.0257 0.5151 18.0257C0.538112 18.0257 0.561123 18.0257 0.584135 18.0219L3.98984 17.5616C4.27364 17.5233 4.47308 17.2625 4.43472 16.9787C4.39637 16.6949 4.13558 16.4954 3.85177 16.5338L1.12107 16.902L1.65417 12.9593L5.80391 17.1091C5.89979 17.205 6.03402 17.2625 6.16826 17.2625C6.30249 17.2625 6.43672 17.2088 6.53261 17.1091L16.8341 6.81143C17.5858 6.05972 18 5.06255 18 4.00019C18 2.93783 17.5858 1.94066 16.8341 1.19279ZM11.4149 2.45842L13.1446 4.18812L3.74438 13.5883L2.01468 11.8586L11.4149 2.45842ZM6.17209 16.0122L4.48075 14.3208L13.8809 4.92065L15.5723 6.612L6.17209 16.0122ZM16.2933 5.87179L12.1551 1.73356C12.6805 1.30018 13.3363 1.06239 14.0267 1.06239C14.8129 1.06239 15.5493 1.36921 16.1054 1.92149C16.6615 2.47376 16.9645 3.21396 16.9645 4.00019C16.9645 4.69437 16.7267 5.34636 16.2933 5.87179Z" fill="#333333"/>
</svg>
