<svg width="15" height="15" viewBox="0 0 15 15" fill="none" xmlns="http://www.w3.org/2000/svg">
<path d="M5.95441 2.31835C5.95441 2.20195 6.04877 2.10759 6.16517 2.10759H8.69427C8.81067 2.10759 8.90503 2.20195 8.90503 2.31835V5.69048C8.90503 5.80688 8.81067 5.90124 8.69427 5.90124H6.16517C6.04877 5.90124 5.95441 5.80688 5.95441 5.69048V2.31835Z" fill="#F4F4F4"/>
<path d="M4.37372 2.88037C4.37372 2.99677 4.46808 3.09113 4.58448 3.09113H10.3101C10.4265 3.09113 10.5208 2.99677 10.5208 2.88037V2.86229C10.5208 2.80639 10.4986 2.75278 10.4591 2.71326L7.80759 0.0617298C7.76806 0.0222049 7.71446 0 7.65856 0H7.37348C7.31938 0 7.26736 0.0208008 7.22818 0.0580966L4.43917 2.71269C4.39738 2.75247 4.37372 2.80765 4.37372 2.86535V2.88037Z" fill="#F4F4F4"/>
<path d="M8.94016 12.2238C8.94016 12.3402 8.8458 12.4345 8.7294 12.4345L6.20029 12.4345C6.08389 12.4345 5.98953 12.3402 5.98953 12.2238L5.98954 8.85163C5.98954 8.73523 6.0839 8.64087 6.20029 8.64087L8.7294 8.64087C8.8458 8.64087 8.94016 8.73523 8.94016 8.85163V12.2238Z" fill="#F4F4F4"/>
<path d="M10.5208 11.6617C10.5208 11.5453 10.4265 11.451 10.3101 11.451L4.58448 11.451C4.46808 11.451 4.37372 11.5453 4.37372 11.6617L4.37372 11.6798C4.37372 11.7357 4.39592 11.7893 4.43545 11.8289L7.08698 14.4804C7.1265 14.5199 7.18011 14.5421 7.23601 14.5421H7.52109C7.57518 14.5421 7.62721 14.5213 7.66639 14.484L10.4554 11.8294C10.4972 11.7896 10.5208 11.7345 10.5208 11.6768V11.6617Z" fill="#F4F4F4"/>
<path d="M2.8561 4.35675C2.98939 4.22577 3.21458 4.3202 3.21458 4.50708V10.0932C3.21458 10.2818 2.98575 10.3755 2.85351 10.2409L0.0604543 7.39945C-0.0211503 7.31643 -0.0199929 7.18297 0.063039 7.10138L2.8561 4.35675Z" fill="#F4F4F4"/>
<path d="M12.1439 10.2562C12.0106 10.3872 11.7854 10.2928 11.7854 10.1059L11.7854 4.51978C11.7854 4.33113 12.0142 4.2375 12.1465 4.37203L14.9395 7.21353C15.0211 7.29655 15.02 7.43 14.9369 7.5116L12.1439 10.2562Z" fill="#F4F4F4"/>
</svg>
