<svg width="16" height="16" viewBox="0 0 16 16" fill="none" xmlns="http://www.w3.org/2000/svg">
<path d="M4 12.5V15.5H12V12.5V10.5H4V12.5ZM5 11.5H11V12.5H5V11.5ZM5 13.5H11V14.5H5V13.5Z" fill="#333333"/>
<path d="M12 3.5V0.5H4V3.5V5.5H12V3.5Z" fill="#333333"/>
<path d="M14 3.5H13V5.5V6.5H3V5.5V3.5H2C1 3.5 0 4.5 0 5.5V10.5C0 11.5 1 12.5 2 12.5H3V10.5V9.5H13V10.5V12.5H14C15 12.5 16 11.5 16 10.5V5.5C16 4.5 15 3.5 14 3.5Z" fill="#333333"/>
</svg>
