<svg width="16" height="16" viewBox="0 0 16 16" fill="none" xmlns="http://www.w3.org/2000/svg">
<path d="M13.4789 4.67729C13.9994 4.15676 13.9994 3.3139 13.4789 2.7939C12.9589 2.27337 12.1155 2.27337 11.5955 2.7939C11.0749 3.31443 11.0749 4.15729 11.5955 4.67729C12.1155 5.19782 12.9589 5.19782 13.4789 4.67729ZM10.4058 8.24747H12.2716C12.4756 8.36361 12.7362 8.34443 12.9104 8.17181L14.7959 6.30441C14.8183 6.28203 14.8284 6.25379 14.846 6.22929C14.8907 6.18933 14.9414 6.16003 14.9845 6.1174C16.3383 4.77639 16.3383 2.6021 14.9845 1.26162C13.6307 -0.0793942 11.4356 -0.0793942 10.0818 1.26162C8.72804 2.60263 8.72804 4.77692 10.0818 6.1174C10.125 6.16003 10.1756 6.18933 10.2204 6.22929C10.2379 6.25379 10.2481 6.28203 10.2704 6.30441L11.1735 7.19895H10.3722V7.21866C9.06369 7.23731 8.00772 8.30021 8.00772 9.61299C8.00772 10.937 9.08127 11.9775 10.4052 11.9775H12.5364C13.2721 11.9775 13.8683 12.5902 13.8683 13.326C13.8683 14.0617 13.2721 14.6579 12.5364 14.6579H4.79131L5.72954 13.7287C5.75191 13.7064 5.76204 13.6787 5.77962 13.6536C5.82437 13.6137 5.87499 13.5844 5.91814 13.5417C7.27194 12.2007 7.27194 10.0264 5.91814 8.68595C4.56434 7.34493 2.36927 7.34493 1.01547 8.68595C-0.338328 10.027 -0.338328 12.2012 1.01547 13.5417C1.05863 13.5844 1.10924 13.6137 1.154 13.6536C1.17158 13.6787 1.1817 13.7064 1.20408 13.7287L3.0896 15.5961C3.23078 15.7363 3.42951 15.773 3.60906 15.7235H12.5705V15.7203C13.879 15.7016 14.935 14.6387 14.935 13.326C14.935 12.0217 13.8923 10.9657 12.5955 10.9343V10.9284L10.3397 10.9386C9.6359 10.9029 9.07435 10.3259 9.07435 9.61352C9.07381 8.87722 9.67 8.24747 10.4058 8.24747V8.24747ZM10.8416 5.37577L10.8421 5.37524C10.8405 5.3731 10.8384 5.37204 10.8363 5.37044C9.89909 4.44233 9.89909 2.93722 10.8363 2.00858C11.7734 1.08047 13.2929 1.08047 14.2306 2.00858C15.1678 2.93669 15.1678 4.4418 14.2306 5.37044C14.2248 5.3763 14.2178 5.3795 14.2114 5.38536L14.213 5.38749L12.5332 7.05084L10.8416 5.37577ZM3.46681 14.4757L1.77522 12.7996V12.799C1.77362 12.7974 1.77149 12.7958 1.76936 12.7942C0.832196 11.8661 0.832196 10.361 1.76936 9.43238C2.70653 8.50427 4.22602 8.50427 5.16372 9.43238C6.10089 10.3605 6.10089 11.8656 5.16372 12.7942C5.15786 12.8001 5.15093 12.8038 5.14454 12.8097L5.14614 12.8113L3.46681 14.4757V14.4757ZM2.53817 10.2529C2.01764 10.7734 2.01764 11.6163 2.53817 12.1362C3.05816 12.6568 3.90156 12.6568 4.42155 12.1362C4.94208 11.6157 4.94208 10.7729 4.42155 10.2529C3.90156 9.73287 3.05816 9.73287 2.53817 10.2529Z" fill="#333333"/>
</svg>
